Chronologic VCS simulator copyright 1991-2011
Contains Synopsys proprietary information.
Compiler version E-2011.03-SP1_Full64; Runtime version E-2011.03-SP1_Full64;  Jan 23 20:36 2013
************ STARTING SIMULATION ************
Step:          1: current counter value:      65536, 00000000000000010000000000000000 Decimal number: ~ 1.0
Step:          2: current counter value:      92682, 00000000000000010110101000001010 Decimal number: ~ 1.414215088
Step:          3: current counter value:     113511, 00000000000000011011101101100111 Decimal number: ~ 1.732040406
Step:          4: current counter value:     131072, 00000000000000100000000000000000 Decimal number: ~ 2.0
Step:          5: current counter value:     146543, 00000000000000100011110001101111 Decimal number: ~ 2.236068726
Step:          6: current counter value:     160529, 00000000000000100111001100010001 Decimal number: ~ 2.449478150
Step:          7: current counter value:     173392, 00000000000000101010010101010000 Decimal number: ~ 2.645751954
Step:          8: current counter value:     185363, 00000000000000101101010000010011 Decimal number: ~ 2.828414918
Step:          9: current counter value:     196608, 00000000000000110000000000000000 Decimal number: ~ 3.0
Step:         10: current counter value:     207243, 00000000000000110010100110001011 Decimal number: ~ 3.162277222
Step:         11: current counter value:     217358, 00000000000000110101000100001110 Decimal number: ~ 3.316619873
Step:         12: current counter value:     227023, 00000000000000110111011011001111 Decimal number: ~ 3.464096070
Step:         13: current counter value:     236293, 00000000000000111001101100000101 Decimal number: ~ 3.605545044
Step:         14: current counter value:     245213, 00000000000000111011110111011101 Decimal number: ~ 3.741653443
Step:         15: current counter value:     253819, 00000000000000111101111101111011 Decimal number: ~ 3.872970582
Step:         16: current counter value:     262144, 00000000000001000000000000000000 Decimal number: ~ 4.0
Step:         16: current counter value:     262144, 00000000000001000000000000000000 Decimal number: ~ 4.0
Step:         15: current counter value:     253819, 00000000000000111101111101111011 Decimal number: ~ 3.872970582
Step:         14: current counter value:     245213, 00000000000000111011110111011101 Decimal number: ~ 3.741653443
Step:         13: current counter value:     236293, 00000000000000111001101100000101 Decimal number: ~ 3.605545044
Step:         12: current counter value:     227023, 00000000000000110111011011001111 Decimal number: ~ 3.464096070
Step:         11: current counter value:     217358, 00000000000000110101000100001110 Decimal number: ~ 3.316619873
Step:         10: current counter value:     207243, 00000000000000110010100110001011 Decimal number: ~ 3.162277222
Step:          9: current counter value:     196608, 00000000000000110000000000000000 Decimal number: ~ 3.0
Step:          8: current counter value:     185363, 00000000000000101101010000010011 Decimal number: ~ 2.828414918
Step:          7: current counter value:     173392, 00000000000000101010010101010000 Decimal number: ~ 2.645751954
Step:          6: current counter value:     160529, 00000000000000100111001100010001 Decimal number: ~ 2.449478150
Step:          5: current counter value:     146543, 00000000000000100011110001101111 Decimal number: ~ 2.236068726
Step:          4: current counter value:     131072, 00000000000000100000000000000000 Decimal number: ~ 2.0
Step:          3: current counter value:     113511, 00000000000000011011101101100111 Decimal number: ~ 1.732040406
Step:          2: current counter value:      92682, 00000000000000010110101000001010 Decimal number: ~ 1.414215088
Step:          1: current counter value:      65536, 00000000000000010000000000000000 Decimal number: ~ 1.0
Step:          1: current counter value:      65536, 00000000000000010000000000000000 Decimal number: ~ 1.0
Step:          2: current counter value:      92682, 00000000000000010110101000001010 Decimal number: ~ 1.414215088
Step:          3: current counter value:     113511, 00000000000000011011101101100111 Decimal number: ~ 1.732040406
Step:          4: current counter value:     131072, 00000000000000100000000000000000 Decimal number: ~ 2.0
Step:          5: current counter value:     146543, 00000000000000100011110001101111 Decimal number: ~ 2.236068726
Step:          6: current counter value:     160529, 00000000000000100111001100010001 Decimal number: ~ 2.449478150
Step:          7: current counter value:     173392, 00000000000000101010010101010000 Decimal number: ~ 2.645751954
Step:          8: current counter value:     185363, 00000000000000101101010000010011 Decimal number: ~ 2.828414918
Step:          9: current counter value:     196608, 00000000000000110000000000000000 Decimal number: ~ 3.0
Step:         10: current counter value:     207243, 00000000000000110010100110001011 Decimal number: ~ 3.162277222
Step:         11: current counter value:     217358, 00000000000000110101000100001110 Decimal number: ~ 3.316619873
Step:         12: current counter value:     227023, 00000000000000110111011011001111 Decimal number: ~ 3.464096070
Step:         13: current counter value:     236293, 00000000000000111001101100000101 Decimal number: ~ 3.605545044
Step:         14: current counter value:     245213, 00000000000000111011110111011101 Decimal number: ~ 3.741653443
Step:         15: current counter value:     253819, 00000000000000111101111101111011 Decimal number: ~ 3.872970582
Step:         16: current counter value:     262144, 00000000000001000000000000000000 Decimal number: ~ 4.0
Step:         16: current counter value:     262144, 00000000000001000000000000000000 Decimal number: ~ 4.0
Step:         15: current counter value:     253819, 00000000000000111101111101111011 Decimal number: ~ 3.872970582
Step:         14: current counter value:     245213, 00000000000000111011110111011101 Decimal number: ~ 3.741653443
Step:         13: current counter value:     236293, 00000000000000111001101100000101 Decimal number: ~ 3.605545044
Step:         12: current counter value:     227023, 00000000000000110111011011001111 Decimal number: ~ 3.464096070
Step:         11: current counter value:     217358, 00000000000000110101000100001110 Decimal number: ~ 3.316619873
Step:         10: current counter value:     207243, 00000000000000110010100110001011 Decimal number: ~ 3.162277222
Step:          9: current counter value:     196608, 00000000000000110000000000000000 Decimal number: ~ 3.0
Step:          8: current counter value:     185363, 00000000000000101101010000010011 Decimal number: ~ 2.828414918
Step:          7: current counter value:     173392, 00000000000000101010010101010000 Decimal number: ~ 2.645751954
Step:          6: current counter value:     160529, 00000000000000100111001100010001 Decimal number: ~ 2.449478150
Step:          5: current counter value:     146543, 00000000000000100011110001101111 Decimal number: ~ 2.236068726
Step:          4: current counter value:     131072, 00000000000000100000000000000000 Decimal number: ~ 2.0
Step:          3: current counter value:     113511, 00000000000000011011101101100111 Decimal number: ~ 1.732040406
Step:          2: current counter value:      92682, 00000000000000010110101000001010 Decimal number: ~ 1.414215088
Step:          1: current counter value:      65536, 00000000000000010000000000000000 Decimal number: ~ 1.0
************ SIMULATION COMPLETE ************
$finish called from file "sqrt_tb.v", line 96.
$finish at simulation time             62725000
           V C S   S i m u l a t i o n   R e p o r t 
Time: 62725000 ps
CPU Time:      0.280 seconds;       Data structure size:   0.0Mb
Wed Jan 23 20:36:40 2013
